ETC3250: Neural networks
…
]]

---
class: split-70
layout: false

.column[.pad50px[

Are the same observations misclassifed by each neuron, or do some neurons do unique work?

```
## # A tibble: 44 x 9
##      obs    s1    s2    s3    s4    s5    s6    s7  nerr
##    <int> <dbl> <dbl> <dbl> <dbl> <dbl> <dbl> <dbl> <dbl>
##  1    10     0     0     1     1     1     1     1     5
##  2    16     1     0     0     1     1     0     1     4
##  3    14     0     1     0     1     0     0     1     3
##  4    24     0     1     0     1     0     1     0     3
##  5    27     1     0     0     0     0     1     1     3
##  6     2     1     1     0     0     0     0     0     2
##  7     4     0     1     0     0     0     0     1     2
##  8     9     1     1     0     0     0     0     0     2
##  9    11     0     0     0     1     0     0     1     2
## 10    20     0     0     0     0     0     1     1     2
## 11    25     0     1     0     0     0     0     1     2
## # … with 33 more rows
```
…
