ETC3250 2019 - Lab 8
…
Use 1000 trees, using a numeric response so that predictions will be a number between 0-1, and set importance=TRUE. (Ignore the warning about not having enough distinct values to use regression.)

Compute the error for the test set, and for each class. Consider a proportion 0.2 or greater to indicate that the customer will purchase a caravan.

#      rf.pred
#          0    1  Sum
#   0   1657  167 1824
#   1     91   25  116
#   Sum 1748  192 1940

Overall=(89+167)/1940=0.1319588, Non-purchasers=167/1824=0.09155702, Purchasers=89/116=0.0.7672414

What are the 6 most important variables? Make a plot of any that are different from those chosen by gbm. How does the set of variables compare with those chosen by gbm.

# # A tibble: 85 x 3
#   `%IncMSE` IncNodePurity var     
#       <dbl>         <dbl> <chr>   
# 1  0.00231           7.27 PBRAND  
# 2  0.00403           7.07 MOSTYPE 
# 3  0.00193           5.76 PPERSAUT
# 4  0.000464          4.84 APERSAUT
# 5  0.00293           4.46 MKOOPKLA
# 6  0.00118           4.29 MGODGE  
# #  with 79 more rows
…
